ESM 244 Lab 2 - Time Series
…
1.2 Use filter_index() function to filter by date or time!

Code

### Filter from Dec 2010 to Jan 2011
toolik_ts %>% 
  filter_index('2018-01-01' ~ .) # . means start or end of your data

# A tsibble: 1,826 x 5 [1D]
   date       daily_air_temp daily_precip mean_barom mean_windspeed
   <date>              <dbl>        <dbl>      <dbl>          <dbl>
 1 2018-01-01         -23.7           0.2       920.          0.787
 2 2018-01-02         -10.6           0.5       909.          4.26 
 3 2018-01-03          -4.34          0         916.          5.75 
 4 2018-01-04          -7.25          0.2       924.          2.77 
 5 2018-01-05         -16.7           0.3       924.          1.71 
 6 2018-01-06         -25.4           0         921.          1.01 
 7 2018-01-07         -25.7           0         928.          2.53 
 8 2018-01-08         -19.6           0.1       931.          5.85 
 9 2018-01-09         -15.0           0.1       929.          7.76 
10 2018-01-10         -24.9           0         925.          3.03 
# ℹ 1,816 more rows
…
